<?xml version="1.0" standalone="no"?>
<!DOCTYPE svg PUBLIC "-//W3C//DTD SVG 20010904//EN"
 "http://www.w3.org/TR/2001/REC-SVG-20010904/DTD/svg10.dtd">
<svg version="1.0" xmlns="http://www.w3.org/2000/svg"
 width="2885.000000pt" height="668.000000pt" viewBox="0 0 2885.000000 668.000000"
 preserveAspectRatio="xMidYMid meet">
<metadata>
Created by potrace 1.15, written by Peter Selinger 2001-2017
</metadata>
<g transform="translate(0.000000,668.000000) scale(0.100000,-0.100000)"
fill="#000000" stroke="none">
<path d="M2223 6628 c-22 -56 -35 -65 -105 -67 -21 -1 -38 -5 -38 -11 0 -5 3
-10 8 -10 4 -1 24 -15 44 -33 l36 -33 -13 -59 c-8 -33 -12 -61 -9 -64 2 -3 25
10 50 28 l47 32 49 -30 c27 -17 53 -31 57 -31 4 0 1 27 -8 59 l-15 60 49 43
49 43 -63 5 -64 5 -20 58 c-12 31 -24 57 -28 57 -3 0 -15 -24 -26 -52z"/>
<path d="M2635 6600 l-18 -60 -41 0 c-23 0 -52 -3 -65 -7 -23 -6 -22 -7 24
-47 l47 -41 -16 -60 c-8 -32 -13 -61 -11 -64 3 -2 25 10 49 27 24 18 48 32 52
32 4 0 29 -14 56 -31 27 -17 51 -30 53 -27 3 2 -3 30 -12 62 l-16 58 48 41
c47 40 48 42 24 48 -13 4 -41 7 -61 8 -35 1 -37 3 -60 61 -12 33 -26 60 -29
60 -3 0 -14 -27 -24 -60z"/>
<path d="M1814 6598 c-9 -29 -22 -56 -28 -60 -6 -4 -35 -8 -63 -8 -29 0 -53
-4 -53 -8 0 -5 20 -23 45 -42 25 -19 45 -36 45 -39 -1 -3 -7 -33 -15 -66 -8
-32 -13 -60 -12 -62 2 -1 26 13 53 31 l50 34 54 -34 c29 -18 55 -32 57 -31 1
2 -5 29 -14 61 l-17 59 47 44 c26 24 47 46 47 49 0 2 -27 4 -59 4 l-60 0 -22
60 c-12 33 -25 60 -30 60 -4 0 -15 -24 -25 -52z"/>
<path d="M1417 6486 c-19 -59 -29 -65 -107 -66 l-45 -1 49 -43 48 -44 -11 -51
c-18 -83 -16 -85 39 -45 l49 35 52 -35 c29 -20 55 -34 57 -31 2 2 -4 30 -13
62 l-17 58 46 41 c25 22 46 43 46 47 0 4 -26 7 -59 7 l-58 0 -22 60 c-12 33
-26 60 -30 60 -4 0 -15 -24 -24 -54z"/>
<path d="M3017 6486 c-19 -59 -29 -65 -107 -66 l-45 -1 49 -44 50 -44 -12 -51
c-19 -81 -17 -84 38 -44 l49 35 52 -35 c29 -20 55 -34 57 -31 2 2 -4 30 -13
62 l-17 58 46 41 c25 22 46 43 46 47 0 4 -26 7 -59 7 l-58 0 -22 60 c-12 33
-26 60 -30 60 -4 0 -15 -24 -24 -54z"/>
<path d="M1114 6256 c-19 -59 -28 -66 -101 -66 -24 0 -43 -4 -43 -8 0 -5 20
-23 45 -42 25 -19 45 -36 45 -38 0 -2 -7 -31 -16 -64 -8 -33 -13 -62 -11 -64
2 -2 26 12 52 31 43 30 52 33 70 22 91 -58 98 -61 92 -41 -3 10 -11 39 -18 63
l-13 43 47 45 c26 24 47 46 47 49 0 2 -27 4 -59 4 l-59 0 -24 60 c-12 33 -26
60 -30 60 -4 0 -15 -24 -24 -54z"/>
<path d="M3345 6253 c-26 -69 -31 -73 -91 -73 -30 0 -54 -4 -54 -9 0 -7 43
-44 82 -71 4 -3 0 -32 -8 -64 -8 -32 -14 -62 -12 -67 2 -5 25 7 52 26 27 19
54 32 60 28 6 -4 30 -19 54 -35 48 -33 52 -27 28 52 l-13 45 50 45 51 45 -64
5 -64 5 -20 58 c-12 31 -24 57 -27 57 -3 0 -14 -21 -24 -47z"/>
<path d="M1405 5970 l-18 -60 -64 0 c-34 0 -63 -4 -63 -8 0 -5 20 -23 45 -42
50 -38 49 -34 31 -112 -8 -32 -12 -58 -9 -58 3 0 27 15 53 34 l48 34 52 -35
c28 -19 54 -33 56 -30 3 3 -2 31 -12 63 l-17 58 47 39 c25 22 46 43 46 48 0 5
-26 9 -59 9 l-59 0 -22 60 c-12 33 -26 60 -30 60 -4 0 -15 -27 -25 -60z"/>
<path d="M3013 5973 l-20 -58 -61 -3 c-34 -2 -62 -6 -62 -10 0 -4 20 -25 45
-47 l45 -40 -16 -59 c-8 -32 -13 -60 -11 -63 3 -2 27 11 54 30 l48 35 49 -34
c28 -18 52 -31 55 -29 2 3 -2 30 -9 62 l-14 56 48 44 c52 47 51 51 -29 55
l-49 3 -19 50 c-10 28 -22 54 -27 58 -4 5 -16 -18 -27 -50z"/>
<path d="M1795 5882 l-20 -57 -65 -9 -65 -8 48 -42 49 -42 -16 -59 c-8 -33
-13 -61 -11 -64 3 -2 25 10 49 27 24 18 48 32 53 32 4 0 28 -14 53 -30 25 -16
48 -30 51 -30 4 0 0 27 -9 61 l-15 60 49 44 49 44 -40 2 c-72 2 -86 10 -107
64 -11 28 -23 53 -26 57 -4 4 -16 -18 -27 -50z"/>
<path d="M2637 5923 c-2 -5 -12 -32 -21 -60 l-18 -53 -59 0 c-32 0 -59 -4 -59
-9 0 -5 20 -26 44 -46 l44 -36 -15 -55 c-8 -31 -13 -60 -11 -65 2 -5 25 7 52
26 l48 34 52 -35 c28 -19 52 -30 54 -25 2 5 -4 33 -12 62 l-16 52 43 38 c23
21 45 38 50 39 4 0 7 5 7 10 0 6 -28 10 -63 10 l-63 0 -19 56 c-18 55 -30 71
-38 57z"/>
<path d="M2207 5836 c-16 -50 -20 -54 -55 -60 -20 -3 -50 -6 -67 -6 l-30 -1
49 -43 49 -43 -15 -62 c-9 -36 -12 -61 -6 -61 5 0 29 14 52 31 l43 30 52 -32
c28 -18 53 -30 56 -27 3 2 -2 29 -11 58 l-16 54 46 44 c25 24 46 45 46 48 0 2
-26 4 -59 4 l-58 0 -22 60 c-12 33 -26 60 -30 60 -4 0 -15 -24 -24 -54z"/>
<path d="M2195 5338 c-128 -149 -263 -439 -323 -694 -17 -72 -35 -141 -40
-154 l-9 -23 -20 29 c-11 16 -58 103 -103 194 -138 276 -228 394 -335 440
-107 46 -274 52 -351 12 -120 -61 -167 -204 -101 -304 52 -77 144 -86 239 -21
29 19 61 39 71 45 65 34 153 -158 178 -391 13 -124 7 -262 -22 -481 -24 -176
-22 -310 5 -376 l17 -42 77 -5 c42 -2 87 -8 98 -12 19 -6 24 0 42 48 43 114
55 208 49 386 -7 215 -34 338 -137 623 -28 75 -50 140 -50 144 0 4 14 -5 31
-22 64 -60 240 -351 271 -447 6 -18 14 -133 18 -257 6 -205 9 -230 31 -285
l24 -60 70 3 c48 2 82 -2 108 -13 l38 -16 26 57 c38 83 42 241 13 539 -35 372
-28 632 23 820 24 85 78 204 100 220 21 15 24 14 48 -13 35 -40 83 -165 111
-293 32 -149 32 -472 -1 -795 -19 -200 -21 -247 -12 -338 10 -95 25 -147 53
-183 7 -9 18 -8 46 4 27 11 56 14 104 10 l66 -6 23 52 c20 47 23 74 30 277 5
160 11 239 23 275 17 55 114 234 181 335 47 70 113 146 120 138 2 -2 -14 -50
-36 -107 -162 -418 -198 -755 -111 -1016 23 -67 30 -80 47 -77 11 2 55 6 98 9
73 5 79 7 92 34 31 60 38 168 21 306 -34 259 -38 311 -33 468 5 188 22 275 78
392 52 110 76 119 160 57 25 -18 66 -39 91 -45 102 -28 188 47 188 161 0 138
-109 230 -269 230 -121 0 -233 -37 -306 -101 -53 -47 -148 -196 -232 -364
-103 -206 -124 -241 -134 -223 -5 8 -24 77 -43 154 -19 76 -46 172 -61 213
-61 167 -169 371 -256 481 -51 64 -74 65 -124 8z"/>
<path d="M13147 5294 c-72 -17 -110 -37 -136 -70 -48 -61 -11 -125 92 -157 31
-10 141 -29 244 -43 237 -31 304 -54 287 -98 -4 -9 -25 -27 -48 -39 -37 -20
-56 -22 -191 -22 -179 0 -224 11 -277 66 -36 38 -40 39 -103 39 -70 0 -74 -4
-50 -50 22 -42 75 -79 147 -102 80 -26 364 -37 461 -18 180 35 257 126 174
204 -47 44 -120 64 -337 92 -204 26 -257 39 -274 67 -9 15 -7 22 12 37 37 30
88 40 212 40 134 0 178 -10 224 -51 30 -26 41 -29 100 -29 74 0 81 9 45 54
-27 34 -83 62 -161 81 -82 19 -340 19 -421 -1z"/>
<path d="M25357 5294 c-72 -17 -110 -37 -136 -70 -48 -61 -11 -125 92 -157 31
-10 141 -29 244 -43 237 -31 304 -54 287 -98 -4 -9 -25 -27 -48 -39 -37 -20
-56 -22 -191 -22 -179 0 -224 11 -277 66 -36 38 -40 39 -103 39 -70 0 -74 -4
-50 -50 22 -42 75 -79 147 -102 80 -26 364 -37 461 -18 180 35 257 126 174
204 -47 44 -120 64 -337 92 -204 26 -257 39 -274 67 -9 15 -7 22 12 37 37 30
88 40 212 40 134 0 178 -10 224 -51 30 -26 41 -29 100 -29 74 0 81 9 45 54
-27 34 -83 62 -161 81 -82 19 -340 19 -421 -1z"/>
<path d="M5272 5113 c3 -178 4 -190 26 -221 56 -78 171 -106 412 -99 198 5
271 22 328 78 44 44 52 82 52 267 l0 162 -75 0 -75 0 0 -169 c0 -158 -1 -170
-23 -202 -36 -55 -94 -70 -257 -67 -121 3 -139 5 -176 27 -23 13 -47 34 -53
48 -7 14 -11 91 -11 193 l0 170 -76 0 -75 0 3 -187z"/>
<path d="M6680 5050 l0 -250 75 0 75 0 0 185 c0 102 3 185 6 185 3 0 120 -83
260 -185 l254 -185 80 0 80 0 0 250 0 250 -70 0 -70 0 -2 -190 -3 -191 -262
191 -262 190 -80 0 -81 0 0 -250z"/>
<path d="M8130 5050 l0 -250 75 0 75 0 0 250 0 250 -75 0 -75 0 0 -250z"/>
<path d="M8797 5275 c10 -13 99 -125 198 -249 l180 -225 81 2 82 2 199 245
199 245 -74 3 c-43 2 -79 -2 -87 -8 -7 -6 -82 -102 -166 -214 l-153 -202 -123
169 c-68 93 -138 188 -156 213 l-32 43 -83 1 -84 0 19 -25z"/>
<path d="M10230 5050 l0 -250 390 0 390 0 0 30 0 30 -315 0 -315 0 0 85 0 85
285 0 285 0 0 30 0 30 -285 0 -285 0 0 75 0 75 300 0 300 0 0 30 0 30 -375 0
-375 0 0 -250z"/>
<path d="M11580 5051 l0 -251 70 0 70 0 0 111 0 112 138 -7 c167 -9 193 -19
345 -135 l107 -82 93 3 92 3 -100 77 c-55 43 -130 93 -167 112 l-66 34 50 6
c72 10 155 43 178 73 32 40 27 89 -13 127 -60 57 -79 59 -454 63 l-343 4 0
-250z m610 168 c77 -26 90 -69 32 -102 -38 -23 -174 -36 -374 -36 l-128 -1 0
82 0 81 218 -6 c126 -3 232 -11 252 -18z"/>
<path d="M14360 5050 l0 -250 75 0 75 0 0 250 0 250 -75 0 -75 0 0 -250z"/>
<path d="M15120 5050 l0 -250 273 0 c304 0 385 12 477 68 153 95 142 295 -21
378 -93 47 -152 54 -451 54 l-278 0 0 -250z m432 181 c111 -8 133 -13 179 -38
71 -38 93 -70 93 -136 0 -75 -31 -122 -102 -155 -58 -26 -180 -40 -374 -41
l-88 -1 0 190 0 190 83 0 c45 -1 139 -5 209 -9z"/>
<path d="M16693 5143 c-70 -87 -160 -198 -200 -248 l-73 -90 76 -3 c48 -2 81
1 90 9 8 7 36 40 61 75 l47 64 207 0 206 0 62 -75 61 -75 86 0 85 0 -23 29
c-13 16 -108 129 -213 250 l-190 221 -77 0 -77 0 -128 -157z m329 -85 l40 -48
-161 0 -161 0 65 83 c36 45 70 94 77 108 l12 26 44 -61 c25 -33 63 -82 84
-108z"/>
<path d="M17880 5050 l0 -250 273 0 c304 0 385 12 477 68 153 95 142 295 -21
378 -93 47 -152 54 -451 54 l-278 0 0 -250z m432 181 c111 -8 133 -13 179 -38
71 -38 93 -70 93 -136 0 -75 -31 -122 -102 -155 -58 -26 -180 -40 -374 -41
l-88 -1 0 190 0 190 83 0 c45 -1 139 -5 209 -9z"/>
<path d="M20070 5050 l0 -250 70 0 70 0 2 201 3 200 140 -200 140 -200 72 -1
71 0 139 194 138 194 3 -194 2 -194 75 0 75 0 0 250 0 250 -102 0 -103 -1
-144 -204 c-142 -200 -145 -203 -161 -182 -9 12 -74 104 -145 205 l-129 182
-108 0 -108 0 0 -250z"/>
<path d="M21813 5143 c-70 -87 -160 -198 -200 -248 l-73 -90 76 -3 c48 -2 81
1 90 9 8 7 36 40 61 75 l47 64 207 0 206 0 62 -75 61 -75 86 0 85 0 -23 29
c-13 16 -108 129 -213 250 l-190 221 -77 0 -77 0 -128 -157z m329 -85 l40 -48
-161 0 -161 0 65 83 c36 45 70 94 77 108 l12 26 44 -61 c25 -33 63 -82 84
-108z"/>
<path d="M23000 5051 l0 -251 70 0 70 0 0 111 0 112 138 -7 c167 -9 193 -19
345 -135 l107 -82 93 3 92 3 -100 77 c-55 43 -130 93 -167 112 l-66 34 50 6
c72 10 155 43 178 73 32 40 27 89 -13 127 -60 57 -79 59 -454 63 l-343 4 0
-250z m610 168 c77 -26 90 -69 32 -102 -38 -23 -174 -36 -374 -36 l-128 -1 0
82 0 81 218 -6 c126 -3 232 -11 252 -18z"/>
<path d="M24450 5050 l0 -250 75 0 75 0 0 250 0 250 -75 0 -75 0 0 -250z"/>
<path d="M26470 5270 l0 -30 170 0 170 0 0 -220 0 -220 75 0 75 0 0 220 0 220
170 0 170 0 0 30 0 30 -415 0 -415 0 0 -30z"/>
<path d="M27853 5143 c-70 -87 -160 -198 -200 -248 l-73 -90 76 -3 c48 -2 81
1 90 9 8 7 36 40 61 75 l47 64 207 0 206 0 62 -75 61 -75 86 0 85 0 -23 29
c-13 16 -108 129 -213 250 l-190 221 -77 0 -77 0 -128 -157z m329 -85 l40 -48
-161 0 -161 0 65 83 c36 45 70 94 77 108 l12 26 44 -61 c25 -33 63 -82 84
-108z"/>
<path d="M8610 3978 c-10 -24 -212 -497 -450 -1053 -237 -555 -447 -1039 -467
-1075 -83 -153 -132 -196 -255 -222 -56 -12 -58 -13 -58 -45 l0 -33 385 0 385
0 0 34 0 33 -62 6 c-80 8 -150 32 -177 61 -57 60 -44 130 77 411 49 116 96
222 103 238 l12 27 461 0 461 0 92 -225 c135 -327 147 -386 92 -450 -34 -38
-104 -65 -171 -65 -37 0 -38 -1 -38 -35 l0 -35 480 0 480 0 0 34 c0 33 -1 33
-54 39 -72 7 -158 49 -198 97 -66 76 -121 196 -406 875 -159 380 -358 855
-443 1058 l-153 367 -39 0 c-35 0 -39 -3 -57 -42z m162 -1011 l197 -472 -401
-3 c-221 -1 -403 -1 -404 1 -5 4 400 947 406 947 3 0 94 -213 202 -473z"/>
<path d="M15800 3978 c-10 -24 -212 -497 -450 -1053 -237 -555 -447 -1039
-467 -1075 -83 -153 -132 -196 -255 -222 -56 -12 -58 -13 -58 -45 l0 -33 385
0 385 0 0 34 0 33 -62 6 c-80 8 -150 32 -177 61 -57 60 -44 130 77 411 49 116
96 222 103 238 l12 27 461 0 461 0 92 -225 c135 -327 147 -386 92 -450 -34
-38 -104 -65 -171 -65 -37 0 -38 -1 -38 -35 l0 -35 480 0 480 0 0 34 c0 33 -1
33 -54 39 -72 7 -158 49 -198 97 -66 76 -121 196 -406 875 -159 380 -358 855
-443 1058 l-153 367 -39 0 c-35 0 -39 -3 -57 -42z m162 -1011 l197 -472 -401
-3 c-221 -1 -403 -1 -404 1 -5 4 400 947 406 947 3 0 94 -213 202 -473z"/>
<path d="M20955 4000 c-412 -89 -750 -391 -885 -791 -55 -162 -79 -391 -60
-586 30 -329 134 -564 345 -782 148 -153 320 -254 532 -313 68 -19 105 -22
293 -22 205 -1 220 0 314 27 370 103 677 393 810 765 54 151 70 259 70 472 0
222 -18 333 -79 492 -135 348 -429 621 -780 724 -81 24 -110 27 -280 30 -160
3 -204 1 -280 -16z m468 -153 c280 -97 449 -350 519 -782 20 -128 17 -565 -6
-690 -67 -365 -238 -599 -511 -699 -69 -25 -98 -30 -210 -34 -151 -5 -218 8
-330 63 -205 100 -359 342 -425 665 -63 307 -46 705 40 963 79 236 212 403
386 487 101 49 162 60 319 56 121 -2 150 -6 218 -29z"/>
<path d="M5190 3936 c0 -33 0 -33 58 -40 95 -11 189 -67 239 -142 7 -12 231
-523 498 -1135 l484 -1114 43 -3 43 -3 429 1048 c236 576 445 1080 465 1118
50 97 139 186 214 214 32 11 67 21 77 21 16 0 20 7 20 35 l0 35 -380 0 -380 0
0 -35 c0 -30 3 -35 24 -35 58 0 151 -39 191 -80 37 -38 40 -45 39 -93 -1 -29
-15 -91 -31 -138 -38 -111 -606 -1508 -613 -1509 -8 0 -626 1425 -657 1515
-69 194 -31 269 152 298 l75 12 0 32 0 33 -495 0 -495 0 0 -34z"/>
<path d="M10090 3942 l0 -29 99 -10 c125 -12 183 -42 212 -109 35 -79 41 -238
37 -1126 -5 -925 -4 -916 -64 -980 -42 -45 -98 -65 -196 -73 l-88 -7 0 -29 0
-29 941 2 941 3 103 325 c70 222 99 327 91 332 -6 4 -22 8 -36 8 -22 0 -31
-13 -70 -97 -59 -128 -105 -197 -176 -267 -73 -71 -156 -112 -265 -132 -107
-20 -649 -23 -718 -5 -57 16 -87 51 -101 115 -7 36 -10 338 -8 972 3 1029 -2
958 77 1026 48 41 101 59 191 65 122 8 130 10 130 43 l0 30 -550 0 -550 0 0
-28z"/>
<path d="M12360 3942 l0 -29 99 -10 c125 -12 183 -42 212 -109 35 -79 41 -238
37 -1126 -5 -925 -4 -916 -64 -980 -42 -45 -98 -65 -196 -73 l-88 -7 0 -29 0
-29 941 2 941 3 103 325 c70 222 99 327 91 332 -6 4 -22 8 -36 8 -22 0 -31
-13 -70 -97 -59 -128 -105 -197 -176 -267 -73 -71 -156 -112 -265 -132 -107
-20 -649 -23 -718 -5 -57 16 -87 51 -101 115 -7 36 -10 338 -8 972 3 1029 -2
958 77 1026 48 41 101 59 191 65 122 8 130 10 130 43 l0 30 -550 0 -550 0 0
-28z"/>
<path d="M17280 3942 l0 -30 88 -7 c129 -10 195 -46 231 -124 14 -32 16 -131
19 -991 2 -669 -1 -970 -9 -1008 -13 -64 -56 -117 -114 -143 -22 -9 -79 -20
-127 -24 l-88 -7 0 -30 0 -29 688 4 c584 3 699 6 767 20 359 73 605 223 778
474 55 80 132 243 157 333 68 246 66 573 -7 804 -56 178 -138 319 -263 450
-166 174 -329 253 -635 308 -114 21 -156 22 -802 25 l-683 4 0 -29z m1343
-146 c282 -85 507 -297 606 -571 103 -285 99 -681 -9 -952 -64 -159 -191 -323
-327 -419 -76 -55 -206 -116 -298 -140 -99 -27 -380 -27 -517 0 l-98 18 0
1028 0 1027 98 17 c53 10 102 20 107 22 6 2 87 2 180 0 149 -3 181 -6 258 -30z"/>
<path d="M22620 3942 l0 -29 99 -10 c125 -12 183 -42 212 -109 35 -79 41 -238
37 -1126 -5 -925 -4 -916 -64 -980 -42 -45 -98 -65 -196 -73 l-88 -7 0 -29 0
-29 941 2 941 3 103 325 c70 222 99 327 91 332 -6 4 -22 8 -36 8 -22 0 -31
-13 -70 -97 -59 -128 -105 -197 -176 -267 -73 -71 -156 -112 -265 -132 -107
-20 -649 -23 -718 -5 -57 16 -87 51 -101 115 -7 36 -10 338 -8 972 3 1029 -2
958 77 1026 48 41 101 59 191 65 122 8 130 10 130 43 l0 30 -550 0 -550 0 0
-28z"/>
<path d="M24900 3941 c0 -28 0 -29 78 -36 144 -13 231 -66 249 -152 4 -21 8
-468 8 -993 0 -1066 3 -1025 -66 -1084 -46 -39 -87 -52 -191 -61 -78 -7 -78
-7 -78 -36 l0 -29 520 0 520 0 0 29 0 29 -85 7 c-105 8 -193 48 -225 100 -37
59 -42 201 -38 1125 4 960 2 932 70 997 46 44 89 60 191 68 l87 7 0 29 0 29
-520 0 -520 0 0 -29z"/>
<path d="M26120 3942 l0 -30 88 -7 c129 -10 195 -46 231 -124 14 -32 16 -131
19 -991 2 -669 -1 -970 -9 -1008 -13 -64 -56 -117 -114 -143 -22 -9 -79 -20
-127 -24 l-88 -7 0 -30 0 -29 688 4 c584 3 699 6 767 20 359 73 605 223 778
474 55 80 132 243 157 333 68 246 66 573 -7 804 -56 178 -138 319 -263 450
-166 174 -329 253 -635 308 -114 21 -156 22 -802 25 l-683 4 0 -29z m1343
-146 c282 -85 507 -297 606 -571 103 -285 99 -681 -9 -952 -64 -159 -191 -323
-327 -419 -76 -55 -206 -116 -298 -140 -99 -27 -380 -27 -517 0 l-98 18 0
1028 0 1027 98 17 c53 10 102 20 107 22 6 2 87 2 180 0 149 -3 181 -6 258 -30z"/>
<path d="M1880 3661 c-42 -22 -80 -90 -80 -143 0 -163 212 -219 288 -77 75
139 -71 294 -208 220z"/>
<path d="M2481 3662 c-54 -27 -75 -63 -79 -135 -2 -49 1 -69 17 -95 34 -53 77
-74 144 -69 49 3 62 8 91 36 132 128 -12 346 -173 263z"/>
<path d="M1410 3542 c-51 -28 -73 -63 -78 -127 -5 -67 9 -105 55 -145 29 -26
41 -30 93 -30 49 0 64 4 90 26 17 15 37 39 45 55 19 35 19 110 1 153 -30 72
-135 107 -206 68z"/>
<path d="M2965 3546 c-85 -39 -117 -132 -75 -223 50 -111 212 -113 272 -3 25
45 20 129 -8 167 -48 63 -127 88 -189 59z"/>
<path d="M214 3446 c-70 -33 -94 -66 -94 -130 0 -97 47 -136 166 -136 69 0 78
-13 71 -98 -8 -99 -52 -221 -171 -470 -59 -123 -125 -278 -147 -345 -41 -121
-41 -123 -37 -252 3 -122 5 -134 35 -198 56 -117 165 -212 394 -343 3 -2 5 34
4 79 l-2 82 -45 5 c-96 12 -254 145 -306 259 -95 207 39 511 247 561 42 10 54
9 102 -10 101 -40 155 -124 96 -151 -12 -5 -33 -26 -47 -46 -33 -48 -35 -138
-4 -180 50 -68 153 -84 221 -34 88 64 128 226 84 342 -31 81 -89 143 -157 168
-67 25 -199 28 -289 6 -33 -8 -63 -14 -68 -15 -12 0 25 66 113 204 94 146 122
204 146 296 20 80 15 210 -11 261 -54 105 -111 151 -205 163 -35 5 -56 1 -96
-18z"/>
<path d="M4173 3460 c-52 -11 -92 -31 -119 -62 -96 -105 -115 -282 -48 -440
14 -34 51 -102 82 -152 133 -217 160 -261 157 -264 -1 -1 -33 5 -71 14 -97 22
-254 16 -310 -13 -45 -24 -104 -85 -130 -135 -26 -49 -30 -171 -9 -244 13 -46
27 -69 66 -106 45 -44 53 -48 99 -48 106 0 160 50 160 148 0 64 -17 100 -67
140 l-38 30 18 36 c19 40 58 68 129 92 44 14 52 14 105 -1 45 -13 68 -28 118
-78 132 -133 178 -326 112 -471 -51 -112 -201 -247 -290 -262 -80 -13 -76 -11
-66 -49 7 -23 6 -48 0 -72 -18 -65 -26 -67 134 31 232 142 315 285 302 516 -7
126 -53 258 -186 540 -112 235 -152 339 -170 444 -9 53 -9 76 0 98 10 26 16
28 63 28 70 1 128 15 144 37 22 30 35 89 28 126 -8 42 -47 83 -101 108 -44 20
-50 21 -112 9z"/>
<path d="M1761 3183 c-180 -728 -267 -954 -454 -1171 -61 -71 -142 -145 -121
-111 4 8 29 47 56 87 58 90 172 312 227 445 94 226 135 489 115 731 -7 72 -8
76 -28 69 -26 -10 -124 -9 -153 1 -19 7 -25 1 -51 -51 -62 -122 -97 -283 -141
-638 -42 -338 -87 -483 -206 -660 -69 -103 -111 -145 -191 -191 -55 -33 -63
-41 -57 -59 5 -11 8 -41 8 -67 0 -27 0 -48 1 -48 5 0 273 124 329 153 108 54
290 189 398 295 154 151 240 281 397 595 74 149 140 272 145 274 14 4 120
-228 145 -318 31 -112 27 -176 -21 -331 -23 -73 -47 -162 -55 -198 -27 -128
-14 -290 33 -387 22 -47 63 -66 130 -61 69 6 97 32 123 117 45 146 35 280 -41
516 -67 212 -59 294 59 552 30 67 59 120 63 117 5 -3 63 -116 129 -252 70
-142 152 -293 195 -358 111 -167 248 -310 408 -427 135 -99 184 -127 362 -208
l170 -77 6 59 c3 33 9 62 12 66 4 3 -27 26 -68 50 -100 60 -175 151 -255 312
-72 145 -96 236 -130 502 -48 385 -76 514 -138 652 -34 75 -37 78 -61 70 -34
-10 -131 -10 -153 0 -14 7 -17 -1 -25 -60 -26 -213 20 -514 113 -739 55 -134
168 -352 235 -454 69 -105 53 -105 -45 2 -85 91 -163 208 -215 322 -63 135
-151 420 -236 763 -43 171 -81 317 -86 324 -5 9 -16 5 -38 -14 -47 -39 -98
-45 -183 -21 -16 5 -18 -2 -18 -48 0 -134 -30 -312 -75 -444 -50 -149 -109
-284 -123 -284 -12 0 -86 175 -130 305 -35 102 -62 267 -62 376 0 96 -3 100
-61 87 -59 -14 -110 -4 -143 27 -15 14 -30 25 -34 25 -4 0 -32 -98 -61 -217z
m540 -1111 c38 -151 35 -338 -7 -428 -23 -49 -61 -45 -88 9 -51 105 -30 405
36 531 10 18 11 18 25 -8 8 -14 23 -61 34 -104z"/>
<path d="M522 1700 c-48 -30 -72 -75 -72 -140 0 -96 60 -160 150 -160 90 0
150 64 150 160 0 65 -24 110 -72 140 -43 26 -113 26 -156 0z"/>
<path d="M3834 1701 c-96 -58 -111 -172 -35 -254 34 -36 44 -41 92 -44 71 -6
116 18 147 77 28 56 28 105 -1 160 -39 74 -134 103 -203 61z"/>
<path d="M2184 1296 c-29 -29 -34 -41 -34 -80 0 -43 -2 -46 -19 -36 -11 5 -38
10 -61 10 -34 0 -48 -6 -76 -34 -30 -30 -34 -41 -34 -84 0 -61 25 -97 80 -113
l39 -12 -19 -25 c-22 -28 -27 -96 -9 -135 22 -48 109 -74 160 -47 25 14 27 8
31 -113 l4 -97 -43 0 c-40 0 -44 3 -81 57 -21 32 -72 114 -113 182 -128 214
-202 276 -321 269 l-62 -3 -8 32 c-13 48 -60 83 -115 83 -38 0 -50 -5 -79 -34
-26 -26 -34 -42 -34 -69 l0 -35 -29 29 c-52 51 -153 34 -187 -33 -32 -61 -4
-135 61 -164 17 -7 23 -13 14 -14 -55 -1 -101 -90 -79 -154 24 -74 128 -102
189 -50 26 21 31 23 31 9 0 -27 30 -71 60 -89 56 -33 136 -12 165 44 17 34 20
93 5 121 -10 17 -7 19 33 19 100 0 150 113 86 194 l-19 24 23 -6 c43 -11 131
-115 214 -254 63 -107 75 -133 54 -117 -42 31 -139 45 -206 30 -60 -14 -112
-50 -235 -165 -36 -34 -88 -77 -115 -96 -92 -65 -70 -85 167 -144 115 -29 158
-36 195 -31 63 9 140 33 183 57 32 19 35 19 45 3 26 -43 135 -192 153 -208 14
-13 32 -17 58 -15 36 3 42 9 96 88 61 91 72 109 88 153 l10 28 37 -30 c49 -38
158 -71 238 -71 48 0 86 9 170 40 169 64 205 86 205 126 0 28 -42 63 -219 180
l-135 89 -86 0 -87 0 15 35 c8 19 40 89 72 155 62 130 117 195 165 195 30 0
31 -4 5 -37 -26 -33 -26 -98 -1 -139 22 -36 78 -59 117 -50 25 7 25 6 10 -16
-31 -44 -13 -128 36 -162 13 -9 43 -16 71 -16 42 0 54 5 83 34 22 22 34 44 34
62 l0 27 23 -21 c77 -73 193 -33 204 70 5 52 -11 85 -56 115 -23 15 -28 23
-17 23 10 0 31 13 47 29 34 34 39 92 14 141 -35 68 -148 81 -191 22 -9 -13
-12 -9 -18 21 -9 49 -65 97 -112 97 -68 0 -124 -51 -124 -113 l0 -24 -52 18
c-56 20 -112 18 -159 -6 -56 -29 -111 -106 -181 -254 -136 -287 -157 -319
-196 -307 -20 7 -22 14 -22 84 0 42 -3 94 -6 115 l-7 38 40 -7 c53 -8 107 15
128 57 25 47 15 116 -20 146 l-26 23 31 0 c23 0 42 10 66 34 92 92 -9 242
-130 192 l-35 -15 5 29 c8 37 -19 91 -55 113 -16 9 -48 17 -71 17 -34 0 -48
-6 -76 -34z m117 -196 c6 0 21 -12 34 -26 35 -38 34 -87 -4 -125 -37 -37 -79
-38 -120 -3 -33 28 -42 75 -20 115 12 23 67 51 87 44 8 -3 18 -5 23 -5z m897
-165 c59 -69 -15 -178 -100 -146 -65 25 -80 108 -27 155 26 23 38 27 68 22 21
-3 45 -16 59 -31z m-1693 -29 c46 -46 41 -108 -10 -142 -47 -31 -113 -12 -137
41 -24 54 25 125 87 125 25 0 43 -8 60 -24z"/>
</g>
</svg>
