<?xml version="1.0" encoding="iso-8859-1"?>
<!-- Generator: Adobe Illustrator 19.0.0, SVG Export Plug-In . SVG Version: 6.00 Build 0)  -->
<svg version="1.1" id="Capa_1" xmlns="http://www.w3.org/2000/svg" xmlns:xlink="http://www.w3.org/1999/xlink" x="0px" y="0px"
	 viewBox="0 0 512 512" style="enable-background:new 0 0 512 512;" xml:space="preserve">
<path style="fill:#EBEEF2;" d="M103.299,291.008H57.262C25.637,291.008,0,316.645,0,348.27v54.635c0,2.872,2.328,5.2,5.2,5.2
	h150.162c2.872,0,5.2-2.328,5.2-5.2V348.27C160.562,316.646,134.924,291.008,103.299,291.008z"/>
<path style="fill:#D1D6DE;" d="M103.299,291.008h-24.8c31.625,0,57.262,25.637,57.262,57.263v59.835h19.6c2.872,0,5.2-2.328,5.2-5.2
	V348.27C160.561,316.645,134.924,291.008,103.299,291.008z"/>
<path style="fill:#ED5575;" d="M87.117,291.008H73.444l-18.042,61.323c-0.531,1.804-0.046,3.755,1.268,5.1l19.89,20.371
	c2.04,2.09,5.401,2.09,7.441,0l19.89-20.371c1.314-1.346,1.799-3.296,1.268-5.1L87.117,291.008z"/>
<path style="fill:#F9C295;" d="M80.281,103.895L80.281,103.895c-36.1,0-65.366,29.265-65.366,65.366v31.514
	c0,36.101,29.266,65.366,65.366,65.366l0,0c36.1,0,65.366-29.265,65.366-65.366V169.26
	C145.647,133.16,116.381,103.895,80.281,103.895z"/>
<path style="fill:#E59F6A;" d="M80.281,103.895c-2.276,0-4.524,0.118-6.74,0.345c26.777,3.374,47.666,31.197,47.666,65.021v31.514
	c0,33.825-20.889,61.648-47.666,65.022c2.216,0.227,4.464,0.345,6.74,0.345c36.1,0,65.366-29.265,65.366-65.366v-31.514
	C145.647,133.16,116.381,103.895,80.281,103.895z"/>
<path style="fill:#444966;" d="M122.81,119.654c0-0.003,0.001-0.005,0.002-0.008c-0.121-0.103-0.247-0.2-0.368-0.302
	c-0.501-0.423-1.006-0.84-1.52-1.249c-0.234-0.186-0.47-0.369-0.707-0.552c-0.47-0.364-0.946-0.721-1.426-1.072
	c-0.28-0.205-0.562-0.408-0.846-0.608c-0.441-0.311-0.885-0.615-1.333-0.915c-0.329-0.221-0.659-0.441-0.992-0.656
	c-0.402-0.259-0.809-0.51-1.217-0.761c-0.386-0.237-0.771-0.475-1.163-0.704c-0.345-0.202-0.695-0.395-1.045-0.591
	c-0.46-0.258-0.919-0.518-1.386-0.765c-0.24-0.127-0.485-0.247-0.727-0.371c-8.937-4.595-19.061-7.205-29.803-7.205
	c-36.1,0-65.366,29.265-65.366,65.366v6.042c9.625,4.247,20.261,6.622,31.458,6.622c22.993,0,43.651-9.957,57.932-25.781
	c9.03,13.913,24.009,23.609,41.343,25.454v-12.339C145.647,149.407,136.784,131.637,122.81,119.654z"/>
<path style="fill:#2E344C;" d="M145.263,162.214c-0.046-0.426-0.108-0.847-0.161-1.27c-0.093-0.733-0.189-1.465-0.307-2.19
	c-0.07-0.431-0.152-0.858-0.23-1.286c-0.13-0.714-0.266-1.426-0.42-2.132c-0.09-0.416-0.188-0.828-0.286-1.241
	c-0.171-0.717-0.351-1.431-0.545-2.139c-0.105-0.384-0.214-0.767-0.326-1.148c-0.218-0.742-0.45-1.478-0.694-2.208
	c-0.111-0.333-0.221-0.667-0.338-0.998c-0.28-0.796-0.577-1.583-0.887-2.365c-0.1-0.254-0.197-0.509-0.3-0.761
	c-0.374-0.91-0.769-1.809-1.182-2.698c-0.053-0.115-0.103-0.232-0.157-0.347c-3.961-8.391-9.655-15.804-16.621-21.777
	c0.001-0.003,0.001-0.005,0.002-0.007c-0.002-0.002-0.004-0.004-0.007-0.006c-0.119-0.101-0.242-0.196-0.362-0.297
	c-0.501-0.423-1.006-0.84-1.52-1.249c-0.234-0.186-0.47-0.369-0.707-0.552c-0.47-0.363-0.946-0.721-1.426-1.072
	c-0.28-0.205-0.562-0.408-0.846-0.608c-0.441-0.311-0.885-0.615-1.333-0.916c-0.329-0.221-0.659-0.441-0.992-0.656
	c-0.402-0.259-0.809-0.51-1.217-0.761c-0.386-0.237-0.771-0.475-1.163-0.704c-0.345-0.202-0.695-0.396-1.045-0.591
	c-0.46-0.258-0.919-0.517-1.386-0.765c-0.24-0.127-0.485-0.247-0.727-0.371c-2.773-1.426-5.661-2.66-8.645-3.684
	c-0.056-0.019-0.112-0.038-0.168-0.057c-0.998-0.34-2.009-0.652-3.029-0.945c-0.249-0.071-0.497-0.144-0.747-0.212
	c-0.502-0.137-1.007-0.27-1.514-0.396c-0.689-0.17-1.381-0.332-2.078-0.48c-0.384-0.082-0.771-0.155-1.157-0.23
	c-0.644-0.124-1.29-0.241-1.94-0.346c-0.309-0.051-0.617-0.102-0.928-0.147c-0.82-0.121-1.645-0.225-2.475-0.315
	c-0.246-0.027-0.491-0.055-0.737-0.078c-0.926-0.09-1.857-0.162-2.793-0.212c-0.19-0.01-0.381-0.018-0.572-0.026
	c-1.002-0.046-2.007-0.076-3.02-0.076c-2.276,0-4.524,0.118-6.74,0.345c26.777,3.374,47.666,31.197,47.666,65.021v3.703
	c7.195,4.63,15.499,7.684,24.44,8.636V169.26c0-1.19-0.036-2.372-0.099-3.546c-0.02-0.367-0.058-0.729-0.083-1.095
	C145.408,163.815,145.349,163.01,145.263,162.214z"/>
<path style="fill:#D1D6DE;" d="M324.203,232.361c20.31,50.7,21.084,98.075,1.722,105.831c-1.716,0.687-3.539,1.039-5.434,1.069
	c-1.001,0.022-2.023-0.045-3.068-0.202c-2.667-0.39-5.457-1.334-8.352-2.783c-18.101-9.089-39.814-38.048-54.953-75.84
	s-19.425-73.733-12.605-92.804c1.094-3.047,2.461-5.656,4.12-7.78c0.648-0.834,1.341-1.589,2.081-2.264
	c1.392-1.287,2.953-2.291,4.669-2.979C271.745,146.854,303.893,181.661,324.203,232.361z"/>
<path style="fill:#AFB5BF;" d="M281.478,285.288c-15.139-37.792-19.425-73.733-12.605-92.804c1.094-3.047,2.461-5.656,4.121-7.78
	c0.648-0.834,1.341-1.589,2.081-2.264c1.392-1.287,2.953-2.291,4.669-2.979c4.72-1.891,10.202-1.245,16.086,1.537
	c-15.536-20.32-31.803-31.053-43.446-26.388c-1.716,0.687-3.277,1.692-4.669,2.978c-0.74,0.675-1.433,1.43-2.081,2.264
	c-1.66,2.124-3.027,4.733-4.12,7.78c-6.82,19.071-2.535,55.012,12.605,92.804c15.139,37.792,36.853,66.751,54.953,75.84
	c0.256,0.128,0.507,0.23,0.761,0.35C299.54,323.159,289.569,305.487,281.478,285.288z"/>
<path style="fill:#EBEEF2;" d="M254.118,260.436c15.139,37.792,36.853,66.751,54.953,75.84l-79.919-26.722l-47.412,18.993
	c-9.318,3.733-19.252,3.337-27.789-0.326c-8.548-3.658-15.693-10.572-19.421-19.878c-7.456-18.612,1.58-39.749,20.204-47.21
	l47.412-18.993l39.367-74.507C234.693,186.703,238.979,222.644,254.118,260.436z"/>
<path style="fill:#D1D6DE;" d="M275.982,302.646l-52.435-17.533l-47.412,18.993c-9.318,3.733-19.252,3.337-27.789-0.327
	c-6.473-2.77-12.138-7.41-16.127-13.539c-0.763,5.939-0.073,12.148,2.311,18.101c3.728,9.306,10.873,16.219,19.421,19.878
	c8.536,3.663,18.47,4.059,27.789,0.327l47.412-18.993l79.919,26.722C298.593,331.015,286.906,319.085,275.982,302.646z"/>
<path id="SVGCleanerId_0" style="fill:#5C9CEE;" d="M215.411,315.059l-33.671,13.488c-9.318,3.733-19.252,3.337-27.789-0.326
	c-8.548-3.658-15.693-10.572-19.421-19.878c-7.456-18.612,1.58-39.749,20.204-47.21l33.671-13.488
	C191.882,272.324,200.887,294.803,215.411,315.059z"/>
<g>
	<path id="SVGCleanerId_0_1_" style="fill:#5C9CEE;" d="M215.411,315.059l-33.671,13.488c-9.318,3.733-19.252,3.337-27.789-0.326
		c-8.548-3.658-15.693-10.572-19.421-19.878c-7.456-18.612,1.58-39.749,20.204-47.21l33.671-13.488
		C191.882,272.324,200.887,294.803,215.411,315.059z"/>
</g>
<path style="fill:#EBEEF2;" d="M181.74,328.547c-2.144,0.859-4.322,1.489-6.507,1.921l14.05,35.073
	c2.727,6.807,10.455,10.114,17.262,7.387c6.807-2.727,10.114-10.455,7.387-17.262l-13.814-34.483L181.74,328.547z"/>
<path style="fill:#D1D6DE;" d="M200.119,321.184l-18.379,7.363c-2.144,0.859-4.322,1.489-6.507,1.921l2.755,6.878
	c1.193-0.278,2.382-0.613,3.563-1.018c0.587-0.201,1.172-0.418,1.754-0.652l19.491-7.808L200.119,321.184z"/>
<path style="fill:#ED5575;" d="M289.161,246.399c-3.476-8.677-13.328-12.894-22.005-9.418l-18.814,7.537
	c1.709,5.241,3.63,10.56,5.777,15.919s4.429,10.532,6.811,15.504l18.814-7.537C288.42,264.928,292.637,255.076,289.161,246.399z"/>
<g>
	<path style="fill:#444966;" d="M449.287,263.5H396.31c-4.143,0-7.5-3.357-7.5-7.5s3.357-7.5,7.5-7.5h52.978
		c4.143,0,7.5,3.357,7.5,7.5S453.43,263.5,449.287,263.5z"/>
	<path style="fill:#444966;" d="M370.029,454.839c-1.919,0-3.838-0.731-5.303-2.195l-37.47-37.456
		c-0.414-0.415-0.775-0.873-1.078-1.363c-0.706-1.139-1.114-2.48-1.119-3.918c0-0.001,0-0.001,0-0.002c0-0.003,0-0.006,0-0.01
		s0-0.008,0-0.012s0-0.008,0-0.012s0-0.007,0-0.011v-0.001c0.003-0.966,0.188-1.889,0.523-2.736c0.374-0.95,0.939-1.823,1.673-2.558
		c39.693-39.691,61.554-92.456,61.554-148.571s-21.86-108.88-61.554-148.571c-1.406-1.407-2.196-3.314-2.196-5.304
		s0.79-3.896,2.196-5.304l37.47-37.47c2.928-2.928,7.676-2.929,10.607,0c2.929,2.93,2.929,7.678,0,10.607l-32.253,32.252
		c39.22,41.854,60.729,96.173,60.729,153.789c0,57.62-21.511,111.939-60.735,153.795l32.258,32.245
		c2.929,2.929,2.93,7.678,0.002,10.607C373.869,454.105,371.949,454.839,370.029,454.839z"/>
</g>
<circle style="fill:#F2DF33;" cx="389.55" cy="45.13" r="27.606"/>
<path style="fill:#5C9CEE;" d="M389.551,80.241c-9.378,0-18.193-3.652-24.824-10.283c-6.63-6.63-10.282-15.445-10.282-24.823
	c0-9.377,3.651-18.193,10.282-24.824v0.001c0-0.001,0-0.001,0-0.001c6.631-6.63,15.446-10.282,24.824-10.282
	c9.377,0,18.193,3.651,24.824,10.282s10.282,15.447,10.282,24.824c0,9.378-3.652,18.193-10.283,24.824
	C407.744,76.59,398.928,80.241,389.551,80.241z M389.551,25.028c-5.371,0-10.42,2.092-14.217,5.889c0,0,0,0,0,0.001
	c-3.798,3.797-5.89,8.847-5.89,14.217c0,5.371,2.092,10.42,5.889,14.217c3.798,3.798,8.847,5.89,14.218,5.89
	c5.37,0,10.42-2.092,14.217-5.89c3.798-3.797,5.89-8.846,5.89-14.217c0-5.37-2.092-10.42-5.89-14.217
	C399.971,27.12,394.921,25.028,389.551,25.028z M370.03,25.614h0.01H370.03z"/>
<circle style="fill:#F2DF33;" cx="476.89" cy="255.999" r="27.606"/>
<path style="fill:#5C9CEE;" d="M476.894,291.105c-19.357,0-35.106-15.749-35.106-35.106s15.749-35.106,35.106-35.106
	S512,236.643,512,256S496.251,291.105,476.894,291.105z M476.894,235.894c-11.087,0-20.106,9.02-20.106,20.106
	s9.02,20.106,20.106,20.106S497,267.087,497,256S487.98,235.894,476.894,235.894z"/>
<circle style="fill:#F2DF33;" cx="389.55" cy="466.87" r="27.606"/>
<path style="fill:#5C9CEE;" d="M389.551,501.971c-9.378,0-18.193-3.652-24.824-10.283c-6.631-6.63-10.282-15.446-10.282-24.823
	c0-9.378,3.652-18.193,10.283-24.824c6.63-6.63,15.445-10.282,24.823-10.282c9.377,0,18.193,3.651,24.824,10.282h-0.001
	c0.001,0,0.001,0,0.001,0c6.63,6.631,10.282,15.446,10.282,24.824c0,9.377-3.651,18.193-10.282,24.824
	S398.928,501.971,389.551,501.971z M389.551,446.759c-5.371,0-10.42,2.092-14.217,5.889c-3.798,3.798-5.89,8.847-5.89,14.218
	c0,5.37,2.092,10.42,5.89,14.217c3.797,3.798,8.846,5.89,14.217,5.89c5.37,0,10.42-2.092,14.217-5.89
	c3.798-3.797,5.89-8.847,5.89-14.217c0-5.371-2.092-10.42-5.889-14.217c0,0,0,0-0.001,0
	C399.971,448.851,394.921,446.759,389.551,446.759z"/>
<g>
</g>
<g>
</g>
<g>
</g>
<g>
</g>
<g>
</g>
<g>
</g>
<g>
</g>
<g>
</g>
<g>
</g>
<g>
</g>
<g>
</g>
<g>
</g>
<g>
</g>
<g>
</g>
<g>
</g>
</svg>
